## WARNING!
## The current directory is in your home directory. Please use the high-performance
## cluster filesystem /nobackup. See documentation for information.
## WARNING!

## Hosts assigned to job 2560622.1:
##
## db04gpu3.arc4.leeds.ac.uk 10 slots
##
## Resources granted:
##
## h_vmem = 5153960755 (per slot)
## h_rt   = 02:00:00
## disk   = 1G (per slot)

e1/og/1.jpg: Predicted in 0.211604 seconds.
horse: 92%
person: 99%
person: 99%
person: 53%
e1/og/1.jpg: Predicted in 0.220459 seconds.
horse: 92%
person: 99%
person: 99%
person: 53%
e1/og/1.jpg: Predicted in 0.217883 seconds.
horse: 92%
person: 99%
person: 99%
person: 53%
e1/og/1.jpg: Predicted in 0.218138 seconds.
horse: 92%
person: 99%
person: 99%
person: 53%
e1/og/1.jpg: Predicted in 0.216769 seconds.
horse: 92%
person: 99%
person: 99%
person: 53%
e1/og/2.jpg: Predicted in 0.224893 seconds.
kite: 92%
bird: 99%
bird: 99%
e1/og/2.jpg: Predicted in 0.231569 seconds.
kite: 92%
bird: 99%
bird: 99%
e1/og/2.jpg: Predicted in 0.226710 seconds.
kite: 92%
bird: 99%
bird: 99%
e1/og/2.jpg: Predicted in 0.226466 seconds.
kite: 92%
bird: 99%
bird: 99%
e1/og/2.jpg: Predicted in 0.229336 seconds.
kite: 92%
bird: 99%
bird: 99%
e1/og/3.jpg: Predicted in 0.231487 seconds.
bird: 100%
bird: 100%
e1/og/3.jpg: Predicted in 0.229092 seconds.
bird: 100%
bird: 100%
e1/og/3.jpg: Predicted in 0.230087 seconds.
bird: 100%
bird: 100%
e1/og/3.jpg: Predicted in 0.231612 seconds.
bird: 100%
bird: 100%
e1/og/3.jpg: Predicted in 0.238836 seconds.
bird: 100%
bird: 100%
e1/og/4.jpg: Predicted in 0.232183 seconds.
aeroplane: 100%
e1/og/4.jpg: Predicted in 0.233412 seconds.
aeroplane: 100%
e1/og/4.jpg: Predicted in 0.232413 seconds.
aeroplane: 100%
e1/og/4.jpg: Predicted in 0.236793 seconds.
aeroplane: 100%
e1/og/4.jpg: Predicted in 0.234344 seconds.
aeroplane: 100%
e1/og/5.jpg: Predicted in 0.229450 seconds.
horse: 100%
horse: 100%
horse: 71%
person: 100%
person: 100%
person: 100%
e1/og/5.jpg: Predicted in 0.229953 seconds.
horse: 100%
horse: 100%
horse: 71%
person: 100%
person: 100%
person: 100%
e1/og/5.jpg: Predicted in 0.229231 seconds.
horse: 100%
horse: 100%
horse: 71%
person: 100%
person: 100%
person: 100%
e1/og/5.jpg: Predicted in 0.231995 seconds.
horse: 100%
horse: 100%
horse: 71%
person: 100%
person: 100%
person: 100%
e1/og/5.jpg: Predicted in 0.230464 seconds.
horse: 100%
horse: 100%
horse: 71%
person: 100%
person: 100%
person: 100%
e1/og/6.jpg: Predicted in 0.233671 seconds.
horse: 100%
horse: 67%
e1/og/6.jpg: Predicted in 0.229574 seconds.
horse: 100%
horse: 67%
e1/og/6.jpg: Predicted in 0.228030 seconds.
horse: 100%
horse: 67%
e1/og/6.jpg: Predicted in 0.229758 seconds.
horse: 100%
horse: 67%
e1/og/6.jpg: Predicted in 0.228966 seconds.
horse: 100%
horse: 67%
e1/og/7.jpg: Predicted in 0.229116 seconds.
sink: 51%
tvmonitor: 99%
diningtable: 99%
diningtable: 62%
chair: 100%
chair: 100%
e1/og/7.jpg: Predicted in 0.227190 seconds.
sink: 51%
tvmonitor: 99%
diningtable: 99%
diningtable: 62%
chair: 100%
chair: 100%
e1/og/7.jpg: Predicted in 0.229536 seconds.
sink: 51%
tvmonitor: 99%
diningtable: 99%
diningtable: 62%
chair: 100%
chair: 100%
e1/og/7.jpg: Predicted in 0.226024 seconds.
sink: 51%
tvmonitor: 99%
diningtable: 99%
diningtable: 62%
chair: 100%
chair: 100%
e1/og/7.jpg: Predicted in 0.228691 seconds.
sink: 51%
tvmonitor: 99%
diningtable: 99%
diningtable: 62%
chair: 100%
chair: 100%
e1/og/8.jpg: Predicted in 0.235406 seconds.
truck: 83%
car: 64%
bicycle: 99%
person: 92%
e1/og/8.jpg: Predicted in 0.231009 seconds.
truck: 83%
car: 64%
bicycle: 99%
person: 92%
e1/og/8.jpg: Predicted in 0.234436 seconds.
truck: 83%
car: 64%
bicycle: 99%
person: 92%
e1/og/8.jpg: Predicted in 0.233706 seconds.
truck: 83%
car: 64%
bicycle: 99%
person: 92%
e1/og/8.jpg: Predicted in 0.232164 seconds.
truck: 83%
car: 64%
bicycle: 99%
person: 92%
e1/og/9.jpg: Predicted in 0.219285 seconds.
sheep: 73%
horse: 82%
sheep: 55%
e1/og/9.jpg: Predicted in 0.222309 seconds.
sheep: 73%
horse: 82%
sheep: 55%
e1/og/9.jpg: Predicted in 0.221203 seconds.
sheep: 73%
horse: 82%
sheep: 55%
e1/og/9.jpg: Predicted in 0.220790 seconds.
sheep: 73%
horse: 82%
sheep: 55%
e1/og/9.jpg: Predicted in 0.221468 seconds.
sheep: 73%
horse: 82%
sheep: 55%
e1/90/91.jpg: Predicted in 0.234024 seconds.
horse: 91%
person: 99%
person: 99%
person: 59%
e1/90/91.jpg: Predicted in 0.231698 seconds.
horse: 91%
person: 99%
person: 99%
person: 59%
e1/90/91.jpg: Predicted in 0.230705 seconds.
horse: 91%
person: 99%
person: 99%
person: 59%
e1/90/91.jpg: Predicted in 0.229275 seconds.
horse: 91%
person: 99%
person: 99%
person: 59%
e1/90/91.jpg: Predicted in 0.233278 seconds.
horse: 91%
person: 99%
person: 99%
person: 59%
e1/90/92.jpg: Predicted in 0.235139 seconds.
kite: 92%
bird: 99%
bird: 99%
e1/90/92.jpg: Predicted in 0.233921 seconds.
kite: 92%
bird: 99%
bird: 99%
e1/90/92.jpg: Predicted in 0.235510 seconds.
kite: 92%
bird: 99%
bird: 99%
e1/90/92.jpg: Predicted in 0.233964 seconds.
kite: 92%
bird: 99%
bird: 99%
e1/90/92.jpg: Predicted in 0.231914 seconds.
kite: 92%
bird: 99%
bird: 99%
e1/90/93.jpg: Predicted in 0.234096 seconds.
bird: 100%
bird: 100%
e1/90/93.jpg: Predicted in 0.234164 seconds.
bird: 100%
bird: 100%
e1/90/93.jpg: Predicted in 0.231890 seconds.
bird: 100%
bird: 100%
e1/90/93.jpg: Predicted in 0.235877 seconds.
bird: 100%
bird: 100%
e1/90/93.jpg: Predicted in 0.232905 seconds.
bird: 100%
bird: 100%
e1/90/94.jpg: Predicted in 0.230348 seconds.
aeroplane: 100%
e1/90/94.jpg: Predicted in 0.226523 seconds.
aeroplane: 100%
e1/90/94.jpg: Predicted in 0.227378 seconds.
aeroplane: 100%
e1/90/94.jpg: Predicted in 0.229051 seconds.
aeroplane: 100%
e1/90/94.jpg: Predicted in 0.229667 seconds.
aeroplane: 100%
e1/90/95.jpg: Predicted in 0.236818 seconds.
horse: 100%
horse: 100%
horse: 72%
person: 100%
person: 100%
person: 99%
e1/90/95.jpg: Predicted in 0.230433 seconds.
horse: 100%
horse: 100%
horse: 72%
person: 100%
person: 100%
person: 99%
e1/90/95.jpg: Predicted in 0.232199 seconds.
horse: 100%
horse: 100%
horse: 72%
person: 100%
person: 100%
person: 99%
e1/90/95.jpg: Predicted in 0.233962 seconds.
horse: 100%
horse: 100%
horse: 72%
person: 100%
person: 100%
person: 99%
e1/90/95.jpg: Predicted in 0.234108 seconds.
horse: 100%
horse: 100%
horse: 72%
person: 100%
person: 100%
person: 99%
e1/90/96.jpg: Predicted in 0.224192 seconds.
horse: 100%
horse: 69%
e1/90/96.jpg: Predicted in 0.220335 seconds.
horse: 100%
horse: 69%
e1/90/96.jpg: Predicted in 0.221021 seconds.
horse: 100%
horse: 69%
e1/90/96.jpg: Predicted in 0.223567 seconds.
horse: 100%
horse: 69%
e1/90/96.jpg: Predicted in 0.221614 seconds.
horse: 100%
horse: 69%
e1/90/97.jpg: Predicted in 0.231488 seconds.
sink: 53%
tvmonitor: 99%
diningtable: 99%
diningtable: 64%
chair: 100%
chair: 100%
e1/90/97.jpg: Predicted in 0.232783 seconds.
sink: 53%
tvmonitor: 99%
diningtable: 99%
diningtable: 64%
chair: 100%
chair: 100%
e1/90/97.jpg: Predicted in 0.230389 seconds.
sink: 53%
tvmonitor: 99%
diningtable: 99%
diningtable: 64%
chair: 100%
chair: 100%
e1/90/97.jpg: Predicted in 0.232485 seconds.
sink: 53%
tvmonitor: 99%
diningtable: 99%
diningtable: 64%
chair: 100%
chair: 100%
e1/90/97.jpg: Predicted in 0.232925 seconds.
sink: 53%
tvmonitor: 99%
diningtable: 99%
diningtable: 64%
chair: 100%
chair: 100%
e1/90/98.jpg: Predicted in 0.228452 seconds.
truck: 82%
car: 67%
bicycle: 99%
person: 90%
e1/90/98.jpg: Predicted in 0.229477 seconds.
truck: 82%
car: 67%
bicycle: 99%
person: 90%
e1/90/98.jpg: Predicted in 0.227818 seconds.
truck: 82%
car: 67%
bicycle: 99%
person: 90%
e1/90/98.jpg: Predicted in 0.228664 seconds.
truck: 82%
car: 67%
bicycle: 99%
person: 90%
e1/90/98.jpg: Predicted in 0.228019 seconds.
truck: 82%
car: 67%
bicycle: 99%
person: 90%
e1/90/99.jpg: Predicted in 0.234257 seconds.
sheep: 72%
horse: 84%
e1/90/99.jpg: Predicted in 0.229568 seconds.
sheep: 72%
horse: 84%
e1/90/99.jpg: Predicted in 0.231300 seconds.
sheep: 72%
horse: 84%
e1/90/99.jpg: Predicted in 0.234869 seconds.
sheep: 72%
horse: 84%
e1/90/99.jpg: Predicted in 0.230026 seconds.
sheep: 72%
horse: 84%
e1/80/81.jpg: Predicted in 0.229904 seconds.
horse: 93%
person: 99%
person: 99%
e1/80/81.jpg: Predicted in 0.231395 seconds.
horse: 93%
person: 99%
person: 99%
e1/80/81.jpg: Predicted in 0.236228 seconds.
horse: 93%
person: 99%
person: 99%
e1/80/81.jpg: Predicted in 0.234150 seconds.
horse: 93%
person: 99%
person: 99%
e1/80/81.jpg: Predicted in 0.230794 seconds.
horse: 93%
person: 99%
person: 99%
e1/80/82.jpg: Predicted in 0.219800 seconds.
kite: 88%
bird: 99%
bird: 99%
e1/80/82.jpg: Predicted in 0.215429 seconds.
kite: 88%
bird: 99%
bird: 99%
e1/80/82.jpg: Predicted in 0.219108 seconds.
kite: 88%
bird: 99%
bird: 99%
e1/80/82.jpg: Predicted in 0.221314 seconds.
kite: 88%
bird: 99%
bird: 99%
e1/80/82.jpg: Predicted in 0.226394 seconds.
kite: 88%
bird: 99%
bird: 99%
e1/80/83.jpg: Predicted in 0.231930 seconds.
bird: 100%
bird: 100%
e1/80/83.jpg: Predicted in 0.228196 seconds.
bird: 100%
bird: 100%
e1/80/83.jpg: Predicted in 0.229425 seconds.
bird: 100%
bird: 100%
e1/80/83.jpg: Predicted in 0.230360 seconds.
bird: 100%
bird: 100%
e1/80/83.jpg: Predicted in 0.226933 seconds.
bird: 100%
bird: 100%
e1/80/84.jpg: Predicted in 0.229716 seconds.
aeroplane: 100%
e1/80/84.jpg: Predicted in 0.232162 seconds.
aeroplane: 100%
e1/80/84.jpg: Predicted in 0.229606 seconds.
aeroplane: 100%
e1/80/84.jpg: Predicted in 0.227618 seconds.
aeroplane: 100%
e1/80/84.jpg: Predicted in 0.227209 seconds.
aeroplane: 100%
e1/80/85.jpg: Predicted in 0.221143 seconds.
horse: 100%
horse: 100%
horse: 73%
person: 100%
person: 100%
person: 99%
e1/80/85.jpg: Predicted in 0.222021 seconds.
horse: 100%
horse: 100%
horse: 73%
person: 100%
person: 100%
person: 99%
e1/80/85.jpg: Predicted in 0.218158 seconds.
horse: 100%
horse: 100%
horse: 73%
person: 100%
person: 100%
person: 99%
e1/80/85.jpg: Predicted in 0.227058 seconds.
horse: 100%
horse: 100%
horse: 73%
person: 100%
person: 100%
person: 99%
e1/80/85.jpg: Predicted in 0.217685 seconds.
horse: 100%
horse: 100%
horse: 73%
person: 100%
person: 100%
person: 99%
e1/80/86.jpg: Predicted in 0.225497 seconds.
horse: 100%
horse: 68%
e1/80/86.jpg: Predicted in 0.228214 seconds.
horse: 100%
horse: 68%
e1/80/86.jpg: Predicted in 0.231107 seconds.
horse: 100%
horse: 68%
e1/80/86.jpg: Predicted in 0.230443 seconds.
horse: 100%
horse: 68%
e1/80/86.jpg: Predicted in 0.233817 seconds.
horse: 100%
horse: 68%
e1/80/87.jpg: Predicted in 0.230440 seconds.
sink: 51%
tvmonitor: 99%
diningtable: 99%
diningtable: 61%
chair: 100%
chair: 100%
e1/80/87.jpg: Predicted in 0.229570 seconds.
sink: 51%
tvmonitor: 99%
diningtable: 99%
diningtable: 61%
chair: 100%
chair: 100%
e1/80/87.jpg: Predicted in 0.230852 seconds.
sink: 51%
tvmonitor: 99%
diningtable: 99%
diningtable: 61%
chair: 100%
chair: 100%
e1/80/87.jpg: Predicted in 0.232103 seconds.
sink: 51%
tvmonitor: 99%
diningtable: 99%
diningtable: 61%
chair: 100%
chair: 100%
e1/80/87.jpg: Predicted in 0.233814 seconds.
sink: 51%
tvmonitor: 99%
diningtable: 99%
diningtable: 61%
chair: 100%
chair: 100%
e1/80/88.jpg: Predicted in 0.227401 seconds.
truck: 79%
car: 71%
bicycle: 99%
person: 92%
e1/80/88.jpg: Predicted in 0.235075 seconds.
truck: 79%
car: 71%
bicycle: 99%
person: 92%
e1/80/88.jpg: Predicted in 0.232027 seconds.
truck: 79%
car: 71%
bicycle: 99%
person: 92%
e1/80/88.jpg: Predicted in 0.233392 seconds.
truck: 79%
car: 71%
bicycle: 99%
person: 92%
e1/80/88.jpg: Predicted in 0.230005 seconds.
truck: 79%
car: 71%
bicycle: 99%
person: 92%
e1/80/89.jpg: Predicted in 0.235212 seconds.
sheep: 70%
horse: 82%
e1/80/89.jpg: Predicted in 0.229614 seconds.
sheep: 70%
horse: 82%
e1/80/89.jpg: Predicted in 0.230798 seconds.
sheep: 70%
horse: 82%
e1/80/89.jpg: Predicted in 0.233755 seconds.
sheep: 70%
horse: 82%
e1/80/89.jpg: Predicted in 0.229455 seconds.
sheep: 70%
horse: 82%
e1/70/71.jpg: Predicted in 0.229445 seconds.
horse: 92%
person: 99%
person: 99%
e1/70/71.jpg: Predicted in 0.233122 seconds.
horse: 92%
person: 99%
person: 99%
e1/70/71.jpg: Predicted in 0.227529 seconds.
horse: 92%
person: 99%
person: 99%
e1/70/71.jpg: Predicted in 0.232883 seconds.
horse: 92%
person: 99%
person: 99%
e1/70/71.jpg: Predicted in 0.228755 seconds.
horse: 92%
person: 99%
person: 99%
e1/70/72.jpg: Predicted in 0.228114 seconds.
kite: 88%
bird: 99%
bird: 99%
e1/70/72.jpg: Predicted in 0.224953 seconds.
kite: 88%
bird: 99%
bird: 99%
e1/70/72.jpg: Predicted in 0.223848 seconds.
kite: 88%
bird: 99%
bird: 99%
e1/70/72.jpg: Predicted in 0.219624 seconds.
kite: 88%
bird: 99%
bird: 99%
e1/70/72.jpg: Predicted in 0.223802 seconds.
kite: 88%
bird: 99%
bird: 99%
e1/70/73.jpg: Predicted in 0.226233 seconds.
bird: 100%
bird: 100%
e1/70/73.jpg: Predicted in 0.221289 seconds.
bird: 100%
bird: 100%
e1/70/73.jpg: Predicted in 0.222177 seconds.
bird: 100%
bird: 100%
e1/70/73.jpg: Predicted in 0.226794 seconds.
bird: 100%
bird: 100%
e1/70/73.jpg: Predicted in 0.224412 seconds.
bird: 100%
bird: 100%
e1/70/74.jpg: Predicted in 0.216335 seconds.
aeroplane: 100%
e1/70/74.jpg: Predicted in 0.221814 seconds.
aeroplane: 100%
e1/70/74.jpg: Predicted in 0.221255 seconds.
aeroplane: 100%
e1/70/74.jpg: Predicted in 0.217712 seconds.
aeroplane: 100%
e1/70/74.jpg: Predicted in 0.219761 seconds.
aeroplane: 100%
e1/70/75.jpg: Predicted in 0.221985 seconds.
horse: 100%
horse: 100%
horse: 72%
person: 100%
person: 100%
person: 100%
e1/70/75.jpg: Predicted in 0.222898 seconds.
horse: 100%
horse: 100%
horse: 72%
person: 100%
person: 100%
person: 100%
e1/70/75.jpg: Predicted in 0.220390 seconds.
horse: 100%
horse: 100%
horse: 72%
person: 100%
person: 100%
person: 100%
e1/70/75.jpg: Predicted in 0.224160 seconds.
horse: 100%
horse: 100%
horse: 72%
person: 100%
person: 100%
person: 100%
e1/70/75.jpg: Predicted in 0.219039 seconds.
horse: 100%
horse: 100%
horse: 72%
person: 100%
person: 100%
person: 100%
e1/70/76.jpg: Predicted in 0.222853 seconds.
horse: 100%
horse: 62%
e1/70/76.jpg: Predicted in 0.219799 seconds.
horse: 100%
horse: 62%
e1/70/76.jpg: Predicted in 0.223202 seconds.
horse: 100%
horse: 62%
e1/70/76.jpg: Predicted in 0.226215 seconds.
horse: 100%
horse: 62%
e1/70/76.jpg: Predicted in 0.224266 seconds.
horse: 100%
horse: 62%
e1/70/77.jpg: Predicted in 0.220242 seconds.
sink: 51%
tvmonitor: 99%
diningtable: 99%
diningtable: 63%
chair: 100%
chair: 100%
e1/70/77.jpg: Predicted in 0.219201 seconds.
sink: 51%
tvmonitor: 99%
diningtable: 99%
diningtable: 63%
chair: 100%
chair: 100%
e1/70/77.jpg: Predicted in 0.218498 seconds.
sink: 51%
tvmonitor: 99%
diningtable: 99%
diningtable: 63%
chair: 100%
chair: 100%
e1/70/77.jpg: Predicted in 0.220732 seconds.
sink: 51%
tvmonitor: 99%
diningtable: 99%
diningtable: 63%
chair: 100%
chair: 100%
e1/70/77.jpg: Predicted in 0.221679 seconds.
sink: 51%
tvmonitor: 99%
diningtable: 99%
diningtable: 63%
chair: 100%
chair: 100%
e1/70/78.jpg: Predicted in 0.234369 seconds.
truck: 78%
car: 73%
bicycle: 99%
person: 90%
e1/70/78.jpg: Predicted in 0.232149 seconds.
truck: 78%
car: 73%
bicycle: 99%
person: 90%
e1/70/78.jpg: Predicted in 0.233334 seconds.
truck: 78%
car: 73%
bicycle: 99%
person: 90%
e1/70/78.jpg: Predicted in 0.233441 seconds.
truck: 78%
car: 73%
bicycle: 99%
person: 90%
e1/70/78.jpg: Predicted in 0.231536 seconds.
truck: 78%
car: 73%
bicycle: 99%
person: 90%
e1/70/79.jpg: Predicted in 0.232722 seconds.
cow: 53%
sheep: 64%
horse: 89%
e1/70/79.jpg: Predicted in 0.227353 seconds.
cow: 53%
sheep: 64%
horse: 89%
e1/70/79.jpg: Predicted in 0.230635 seconds.
cow: 53%
sheep: 64%
horse: 89%
e1/70/79.jpg: Predicted in 0.232644 seconds.
cow: 53%
sheep: 64%
horse: 89%
e1/70/79.jpg: Predicted in 0.229415 seconds.
cow: 53%
sheep: 64%
horse: 89%
e1/60/61.jpg: Predicted in 0.235215 seconds.
horse: 87%
person: 99%
person: 99%
e1/60/61.jpg: Predicted in 0.230264 seconds.
horse: 87%
person: 99%
person: 99%
e1/60/61.jpg: Predicted in 0.229514 seconds.
horse: 87%
person: 99%
person: 99%
e1/60/61.jpg: Predicted in 0.230489 seconds.
horse: 87%
person: 99%
person: 99%
e1/60/61.jpg: Predicted in 0.230782 seconds.
horse: 87%
person: 99%
person: 99%
e1/60/62.jpg: Predicted in 0.221733 seconds.
kite: 86%
bird: 99%
bird: 99%
e1/60/62.jpg: Predicted in 0.224556 seconds.
kite: 86%
bird: 99%
bird: 99%
e1/60/62.jpg: Predicted in 0.223023 seconds.
kite: 86%
bird: 99%
bird: 99%
e1/60/62.jpg: Predicted in 0.224949 seconds.
kite: 86%
bird: 99%
bird: 99%
e1/60/62.jpg: Predicted in 0.223432 seconds.
kite: 86%
bird: 99%
bird: 99%
e1/60/63.jpg: Predicted in 0.226043 seconds.
bird: 100%
bird: 100%
e1/60/63.jpg: Predicted in 0.225798 seconds.
bird: 100%
bird: 100%
e1/60/63.jpg: Predicted in 0.222737 seconds.
bird: 100%
bird: 100%
e1/60/63.jpg: Predicted in 0.224173 seconds.
bird: 100%
bird: 100%
e1/60/63.jpg: Predicted in 0.224661 seconds.
bird: 100%
bird: 100%
e1/60/64.jpg: Predicted in 0.219440 seconds.
aeroplane: 100%
e1/60/64.jpg: Predicted in 0.219933 seconds.
aeroplane: 100%
e1/60/64.jpg: Predicted in 0.218298 seconds.
aeroplane: 100%
e1/60/64.jpg: Predicted in 0.221386 seconds.
aeroplane: 100%
e1/60/64.jpg: Predicted in 0.219463 seconds.
aeroplane: 100%
e1/60/65.jpg: Predicted in 0.221292 seconds.
horse: 100%
horse: 100%
horse: 68%
person: 100%
person: 100%
person: 100%
e1/60/65.jpg: Predicted in 0.222543 seconds.
horse: 100%
horse: 100%
horse: 68%
person: 100%
person: 100%
person: 100%
e1/60/65.jpg: Predicted in 0.222952 seconds.
horse: 100%
horse: 100%
horse: 68%
person: 100%
person: 100%
person: 100%
e1/60/65.jpg: Predicted in 0.218308 seconds.
horse: 100%
horse: 100%
horse: 68%
person: 100%
person: 100%
person: 100%
e1/60/65.jpg: Predicted in 0.222041 seconds.
horse: 100%
horse: 100%
horse: 68%
person: 100%
person: 100%
person: 100%
e1/60/66.jpg: Predicted in 0.224853 seconds.
horse: 100%
horse: 60%
e1/60/66.jpg: Predicted in 0.224814 seconds.
horse: 100%
horse: 60%
e1/60/66.jpg: Predicted in 0.221393 seconds.
horse: 100%
horse: 60%
e1/60/66.jpg: Predicted in 0.224836 seconds.
horse: 100%
horse: 60%
e1/60/66.jpg: Predicted in 0.226691 seconds.
horse: 100%
horse: 60%
e1/60/67.jpg: Predicted in 0.221667 seconds.
tvmonitor: 99%
diningtable: 99%
diningtable: 58%
chair: 100%
chair: 100%
e1/60/67.jpg: Predicted in 0.221953 seconds.
tvmonitor: 99%
diningtable: 99%
diningtable: 58%
chair: 100%
chair: 100%
e1/60/67.jpg: Predicted in 0.223720 seconds.
tvmonitor: 99%
diningtable: 99%
diningtable: 58%
chair: 100%
chair: 100%
e1/60/67.jpg: Predicted in 0.213570 seconds.
tvmonitor: 99%
diningtable: 99%
diningtable: 58%
chair: 100%
chair: 100%
e1/60/67.jpg: Predicted in 0.216841 seconds.
tvmonitor: 99%
diningtable: 99%
diningtable: 58%
chair: 100%
chair: 100%
e1/60/68.jpg: Predicted in 0.233427 seconds.
truck: 77%
car: 75%
bicycle: 99%
person: 89%
e1/60/68.jpg: Predicted in 0.229514 seconds.
truck: 77%
car: 75%
bicycle: 99%
person: 89%
e1/60/68.jpg: Predicted in 0.227884 seconds.
truck: 77%
car: 75%
bicycle: 99%
person: 89%
e1/60/68.jpg: Predicted in 0.229767 seconds.
truck: 77%
car: 75%
bicycle: 99%
person: 89%
e1/60/68.jpg: Predicted in 0.232546 seconds.
truck: 77%
car: 75%
bicycle: 99%
person: 89%
e1/60/69.jpg: Predicted in 0.228575 seconds.
sheep: 61%
horse: 91%
e1/60/69.jpg: Predicted in 0.231375 seconds.
sheep: 61%
horse: 91%
e1/60/69.jpg: Predicted in 0.234101 seconds.
sheep: 61%
horse: 91%
e1/60/69.jpg: Predicted in 0.229485 seconds.
sheep: 61%
horse: 91%
e1/60/69.jpg: Predicted in 0.235117 seconds.
sheep: 61%
horse: 91%
e1/50/51.jpg: Predicted in 0.235294 seconds.
horse: 91%
person: 99%
person: 99%
e1/50/51.jpg: Predicted in 0.232142 seconds.
horse: 91%
person: 99%
person: 99%
e1/50/51.jpg: Predicted in 0.224920 seconds.
horse: 91%
person: 99%
person: 99%
e1/50/51.jpg: Predicted in 0.231261 seconds.
horse: 91%
person: 99%
person: 99%
e1/50/51.jpg: Predicted in 0.228004 seconds.
horse: 91%
person: 99%
person: 99%
e1/50/52.jpg: Predicted in 0.224689 seconds.
kite: 87%
bird: 99%
bird: 99%
e1/50/52.jpg: Predicted in 0.222717 seconds.
kite: 87%
bird: 99%
bird: 99%
e1/50/52.jpg: Predicted in 0.226385 seconds.
kite: 87%
bird: 99%
bird: 99%
e1/50/52.jpg: Predicted in 0.223958 seconds.
kite: 87%
bird: 99%
bird: 99%
e1/50/52.jpg: Predicted in 0.224285 seconds.
kite: 87%
bird: 99%
bird: 99%
e1/50/53.jpg: Predicted in 0.221467 seconds.
bird: 100%
bird: 100%
e1/50/53.jpg: Predicted in 0.224753 seconds.
bird: 100%
bird: 100%
e1/50/53.jpg: Predicted in 0.223941 seconds.
bird: 100%
bird: 100%
e1/50/53.jpg: Predicted in 0.226953 seconds.
bird: 100%
bird: 100%
e1/50/53.jpg: Predicted in 0.223660 seconds.
bird: 100%
bird: 100%
e1/50/54.jpg: Predicted in 0.217507 seconds.
aeroplane: 100%
e1/50/54.jpg: Predicted in 0.219138 seconds.
aeroplane: 100%
e1/50/54.jpg: Predicted in 0.215697 seconds.
aeroplane: 100%
e1/50/54.jpg: Predicted in 0.219270 seconds.
aeroplane: 100%
e1/50/54.jpg: Predicted in 0.218376 seconds.
aeroplane: 100%
e1/50/55.jpg: Predicted in 0.223772 seconds.
horse: 100%
horse: 100%
horse: 76%
person: 100%
person: 100%
person: 99%
e1/50/55.jpg: Predicted in 0.221751 seconds.
horse: 100%
horse: 100%
horse: 76%
person: 100%
person: 100%
person: 99%
e1/50/55.jpg: Predicted in 0.224430 seconds.
horse: 100%
horse: 100%
horse: 76%
person: 100%
person: 100%
person: 99%
e1/50/55.jpg: Predicted in 0.223755 seconds.
horse: 100%
horse: 100%
horse: 76%
person: 100%
person: 100%
person: 99%
e1/50/55.jpg: Predicted in 0.221899 seconds.
horse: 100%
horse: 100%
horse: 76%
person: 100%
person: 100%
person: 99%
e1/50/56.jpg: Predicted in 0.223394 seconds.
horse: 100%
horse: 62%
e1/50/56.jpg: Predicted in 0.225491 seconds.
horse: 100%
horse: 62%
e1/50/56.jpg: Predicted in 0.227220 seconds.
horse: 100%
horse: 62%
e1/50/56.jpg: Predicted in 0.226396 seconds.
horse: 100%
horse: 62%
e1/50/56.jpg: Predicted in 0.225821 seconds.
horse: 100%
horse: 62%
e1/50/57.jpg: Predicted in 0.218586 seconds.
tvmonitor: 99%
diningtable: 99%
diningtable: 64%
chair: 100%
chair: 100%
e1/50/57.jpg: Predicted in 0.222419 seconds.
tvmonitor: 99%
diningtable: 99%
diningtable: 64%
chair: 100%
chair: 100%
e1/50/57.jpg: Predicted in 0.222053 seconds.
tvmonitor: 99%
diningtable: 99%
diningtable: 64%
chair: 100%
chair: 100%
e1/50/57.jpg: Predicted in 0.219411 seconds.
tvmonitor: 99%
diningtable: 99%
diningtable: 64%
chair: 100%
chair: 100%
e1/50/57.jpg: Predicted in 0.216681 seconds.
tvmonitor: 99%
diningtable: 99%
diningtable: 64%
chair: 100%
chair: 100%
e1/50/58.jpg: Predicted in 0.238298 seconds.
truck: 76%
car: 79%
bicycle: 99%
person: 92%
e1/50/58.jpg: Predicted in 0.237593 seconds.
truck: 76%
car: 79%
bicycle: 99%
person: 92%
e1/50/58.jpg: Predicted in 0.232220 seconds.
truck: 76%
car: 79%
bicycle: 99%
person: 92%
e1/50/58.jpg: Predicted in 0.236334 seconds.
truck: 76%
car: 79%
bicycle: 99%
person: 92%
e1/50/58.jpg: Predicted in 0.230972 seconds.
truck: 76%
car: 79%
bicycle: 99%
person: 92%
e1/50/59.jpg: Predicted in 0.233325 seconds.
cow: 53%
sheep: 65%
horse: 87%
e1/50/59.jpg: Predicted in 0.236240 seconds.
cow: 53%
sheep: 65%
horse: 87%
e1/50/59.jpg: Predicted in 0.233258 seconds.
cow: 53%
sheep: 65%
horse: 87%
e1/50/59.jpg: Predicted in 0.230423 seconds.
cow: 53%
sheep: 65%
horse: 87%
e1/50/59.jpg: Predicted in 0.230010 seconds.
cow: 53%
sheep: 65%
horse: 87%
e1/40/41.jpg: Predicted in 0.229238 seconds.
horse: 95%
person: 99%
person: 98%
e1/40/41.jpg: Predicted in 0.230126 seconds.
horse: 95%
person: 99%
person: 98%
e1/40/41.jpg: Predicted in 0.229654 seconds.
horse: 95%
person: 99%
person: 98%
e1/40/41.jpg: Predicted in 0.229386 seconds.
horse: 95%
person: 99%
person: 98%
e1/40/41.jpg: Predicted in 0.233207 seconds.
horse: 95%
person: 99%
person: 98%
e1/40/42.jpg: Predicted in 0.220598 seconds.
kite: 86%
bird: 99%
bird: 98%
e1/40/42.jpg: Predicted in 0.220124 seconds.
kite: 86%
bird: 99%
bird: 98%
e1/40/42.jpg: Predicted in 0.223192 seconds.
kite: 86%
bird: 99%
bird: 98%
e1/40/42.jpg: Predicted in 0.221273 seconds.
kite: 86%
bird: 99%
bird: 98%
e1/40/42.jpg: Predicted in 0.223249 seconds.
kite: 86%
bird: 99%
bird: 98%
e1/40/43.jpg: Predicted in 0.224792 seconds.
bird: 100%
bird: 100%
e1/40/43.jpg: Predicted in 0.229423 seconds.
bird: 100%
bird: 100%
e1/40/43.jpg: Predicted in 0.228144 seconds.
bird: 100%
bird: 100%
e1/40/43.jpg: Predicted in 0.225971 seconds.
bird: 100%
bird: 100%
e1/40/43.jpg: Predicted in 0.224163 seconds.
bird: 100%
bird: 100%
e1/40/44.jpg: Predicted in 0.215714 seconds.
aeroplane: 100%
e1/40/44.jpg: Predicted in 0.217505 seconds.
aeroplane: 100%
e1/40/44.jpg: Predicted in 0.219525 seconds.
aeroplane: 100%
e1/40/44.jpg: Predicted in 0.225231 seconds.
aeroplane: 100%
e1/40/44.jpg: Predicted in 0.222168 seconds.
aeroplane: 100%
e1/40/45.jpg: Predicted in 0.223285 seconds.
horse: 100%
horse: 100%
horse: 75%
person: 100%
person: 100%
person: 99%
e1/40/45.jpg: Predicted in 0.226260 seconds.
horse: 100%
horse: 100%
horse: 75%
person: 100%
person: 100%
person: 99%
e1/40/45.jpg: Predicted in 0.225655 seconds.
horse: 100%
horse: 100%
horse: 75%
person: 100%
person: 100%
person: 99%
e1/40/45.jpg: Predicted in 0.222642 seconds.
horse: 100%
horse: 100%
horse: 75%
person: 100%
person: 100%
person: 99%
e1/40/45.jpg: Predicted in 0.222377 seconds.
horse: 100%
horse: 100%
horse: 75%
person: 100%
person: 100%
person: 99%
e1/40/46.jpg: Predicted in 0.229501 seconds.
horse: 100%
horse: 63%
e1/40/46.jpg: Predicted in 0.225420 seconds.
horse: 100%
horse: 63%
e1/40/46.jpg: Predicted in 0.225170 seconds.
horse: 100%
horse: 63%
e1/40/46.jpg: Predicted in 0.227907 seconds.
horse: 100%
horse: 63%
e1/40/46.jpg: Predicted in 0.225518 seconds.
horse: 100%
horse: 63%
e1/40/47.jpg: Predicted in 0.219650 seconds.
sink: 50%
tvmonitor: 99%
diningtable: 99%
diningtable: 60%
chair: 100%
chair: 100%
e1/40/47.jpg: Predicted in 0.219980 seconds.
sink: 50%
tvmonitor: 99%
diningtable: 99%
diningtable: 60%
chair: 100%
chair: 100%
e1/40/47.jpg: Predicted in 0.223027 seconds.
sink: 50%
tvmonitor: 99%
diningtable: 99%
diningtable: 60%
chair: 100%
chair: 100%
e1/40/47.jpg: Predicted in 0.217222 seconds.
sink: 50%
tvmonitor: 99%
diningtable: 99%
diningtable: 60%
chair: 100%
chair: 100%
e1/40/47.jpg: Predicted in 0.218657 seconds.
sink: 50%
tvmonitor: 99%
diningtable: 99%
diningtable: 60%
chair: 100%
chair: 100%
e1/40/48.jpg: Predicted in 0.234755 seconds.
truck: 75%
car: 75%
bicycle: 99%
person: 89%
e1/40/48.jpg: Predicted in 0.233836 seconds.
truck: 75%
car: 75%
bicycle: 99%
person: 89%
e1/40/48.jpg: Predicted in 0.230708 seconds.
truck: 75%
car: 75%
bicycle: 99%
person: 89%
e1/40/48.jpg: Predicted in 0.234504 seconds.
truck: 75%
car: 75%
bicycle: 99%
person: 89%
e1/40/48.jpg: Predicted in 0.234862 seconds.
truck: 75%
car: 75%
bicycle: 99%
person: 89%
e1/40/49.jpg: Predicted in 0.229319 seconds.
sheep: 62%
horse: 86%
e1/40/49.jpg: Predicted in 0.234497 seconds.
sheep: 62%
horse: 86%
e1/40/49.jpg: Predicted in 0.236746 seconds.
sheep: 62%
horse: 86%
e1/40/49.jpg: Predicted in 0.233519 seconds.
sheep: 62%
horse: 86%
e1/40/49.jpg: Predicted in 0.235173 seconds.
sheep: 62%
horse: 86%
e1/30/31.jpg: Predicted in 0.228613 seconds.
horse: 93%
person: 99%
person: 98%
e1/30/31.jpg: Predicted in 0.234218 seconds.
horse: 93%
person: 99%
person: 98%
e1/30/31.jpg: Predicted in 0.231743 seconds.
horse: 93%
person: 99%
person: 98%
e1/30/31.jpg: Predicted in 0.233587 seconds.
horse: 93%
person: 99%
person: 98%
e1/30/31.jpg: Predicted in 0.230969 seconds.
horse: 93%
person: 99%
person: 98%
e1/30/32.jpg: Predicted in 0.225738 seconds.
kite: 82%
bird: 99%
bird: 99%
e1/30/32.jpg: Predicted in 0.225590 seconds.
kite: 82%
bird: 99%
bird: 99%
e1/30/32.jpg: Predicted in 0.226095 seconds.
kite: 82%
bird: 99%
bird: 99%
e1/30/32.jpg: Predicted in 0.228641 seconds.
kite: 82%
bird: 99%
bird: 99%
e1/30/32.jpg: Predicted in 0.224949 seconds.
kite: 82%
bird: 99%
bird: 99%
e1/30/33.jpg: Predicted in 0.223961 seconds.
bird: 100%
bird: 99%
e1/30/33.jpg: Predicted in 0.222142 seconds.
bird: 100%
bird: 99%
e1/30/33.jpg: Predicted in 0.227433 seconds.
bird: 100%
bird: 99%
e1/30/33.jpg: Predicted in 0.224161 seconds.
bird: 100%
bird: 99%
e1/30/33.jpg: Predicted in 0.224506 seconds.
bird: 100%
bird: 99%
e1/30/34.jpg: Predicted in 0.220957 seconds.
aeroplane: 100%
e1/30/34.jpg: Predicted in 0.221752 seconds.
aeroplane: 100%
e1/30/34.jpg: Predicted in 0.215312 seconds.
aeroplane: 100%
e1/30/34.jpg: Predicted in 0.218772 seconds.
aeroplane: 100%
e1/30/34.jpg: Predicted in 0.222484 seconds.
aeroplane: 100%
e1/30/35.jpg: Predicted in 0.223921 seconds.
horse: 100%
horse: 100%
horse: 81%
person: 100%
person: 100%
person: 100%
e1/30/35.jpg: Predicted in 0.220153 seconds.
horse: 100%
horse: 100%
horse: 81%
person: 100%
person: 100%
person: 100%
e1/30/35.jpg: Predicted in 0.222934 seconds.
horse: 100%
horse: 100%
horse: 81%
person: 100%
person: 100%
person: 100%
e1/30/35.jpg: Predicted in 0.225003 seconds.
horse: 100%
horse: 100%
horse: 81%
person: 100%
person: 100%
person: 100%
e1/30/35.jpg: Predicted in 0.224564 seconds.
horse: 100%
horse: 100%
horse: 81%
person: 100%
person: 100%
person: 100%
e1/30/36.jpg: Predicted in 0.225328 seconds.
horse: 99%
horse: 68%
e1/30/36.jpg: Predicted in 0.225909 seconds.
horse: 99%
horse: 68%
e1/30/36.jpg: Predicted in 0.221867 seconds.
horse: 99%
horse: 68%
e1/30/36.jpg: Predicted in 0.227100 seconds.
horse: 99%
horse: 68%
e1/30/36.jpg: Predicted in 0.228116 seconds.
horse: 99%
horse: 68%
e1/30/37.jpg: Predicted in 0.217349 seconds.
tvmonitor: 99%
diningtable: 99%
diningtable: 67%
chair: 100%
chair: 99%
e1/30/37.jpg: Predicted in 0.217729 seconds.
tvmonitor: 99%
diningtable: 99%
diningtable: 67%
chair: 100%
chair: 99%
e1/30/37.jpg: Predicted in 0.216840 seconds.
tvmonitor: 99%
diningtable: 99%
diningtable: 67%
chair: 100%
chair: 99%
e1/30/37.jpg: Predicted in 0.218086 seconds.
tvmonitor: 99%
diningtable: 99%
diningtable: 67%
chair: 100%
chair: 99%
e1/30/37.jpg: Predicted in 0.221018 seconds.
tvmonitor: 99%
diningtable: 99%
diningtable: 67%
chair: 100%
chair: 99%
e1/30/38.jpg: Predicted in 0.230476 seconds.
truck: 74%
car: 74%
bicycle: 99%
person: 78%
e1/30/38.jpg: Predicted in 0.237125 seconds.
truck: 74%
car: 74%
bicycle: 99%
person: 78%
e1/30/38.jpg: Predicted in 0.233564 seconds.
truck: 74%
car: 74%
bicycle: 99%
person: 78%
e1/30/38.jpg: Predicted in 0.228437 seconds.
truck: 74%
car: 74%
bicycle: 99%
person: 78%
e1/30/38.jpg: Predicted in 0.232613 seconds.
truck: 74%
car: 74%
bicycle: 99%
person: 78%
e1/30/39.jpg: Predicted in 0.229291 seconds.
sheep: 56%
horse: 83%
e1/30/39.jpg: Predicted in 0.231092 seconds.
sheep: 56%
horse: 83%
e1/30/39.jpg: Predicted in 0.228551 seconds.
sheep: 56%
horse: 83%
e1/30/39.jpg: Predicted in 0.230274 seconds.
sheep: 56%
horse: 83%
e1/30/39.jpg: Predicted in 0.228821 seconds.
sheep: 56%
horse: 83%
e1/20/21.jpg: Predicted in 0.229637 seconds.
horse: 92%
person: 99%
person: 96%
e1/20/21.jpg: Predicted in 0.231063 seconds.
horse: 92%
person: 99%
person: 96%
e1/20/21.jpg: Predicted in 0.231175 seconds.
horse: 92%
person: 99%
person: 96%
e1/20/21.jpg: Predicted in 0.229464 seconds.
horse: 92%
person: 99%
person: 96%
e1/20/21.jpg: Predicted in 0.235698 seconds.
horse: 92%
person: 99%
person: 96%
e1/20/22.jpg: Predicted in 0.227065 seconds.
kite: 84%
bird: 99%
bird: 99%
e1/20/22.jpg: Predicted in 0.228007 seconds.
kite: 84%
bird: 99%
bird: 99%
e1/20/22.jpg: Predicted in 0.221945 seconds.
kite: 84%
bird: 99%
bird: 99%
e1/20/22.jpg: Predicted in 0.223427 seconds.
kite: 84%
bird: 99%
bird: 99%
e1/20/22.jpg: Predicted in 0.228413 seconds.
kite: 84%
bird: 99%
bird: 99%
e1/20/23.jpg: Predicted in 0.226756 seconds.
bird: 100%
bird: 99%
e1/20/23.jpg: Predicted in 0.224035 seconds.
bird: 100%
bird: 99%
e1/20/23.jpg: Predicted in 0.223944 seconds.
bird: 100%
bird: 99%
e1/20/23.jpg: Predicted in 0.226756 seconds.
bird: 100%
bird: 99%
e1/20/23.jpg: Predicted in 0.225345 seconds.
bird: 100%
bird: 99%
e1/20/24.jpg: Predicted in 0.220381 seconds.
aeroplane: 100%
e1/20/24.jpg: Predicted in 0.220907 seconds.
aeroplane: 100%
e1/20/24.jpg: Predicted in 0.219942 seconds.
aeroplane: 100%
e1/20/24.jpg: Predicted in 0.224101 seconds.
aeroplane: 100%
e1/20/24.jpg: Predicted in 0.219839 seconds.
aeroplane: 100%
e1/20/25.jpg: Predicted in 0.222086 seconds.
horse: 100%
horse: 100%
horse: 82%
person: 100%
person: 100%
person: 100%
e1/20/25.jpg: Predicted in 0.226277 seconds.
horse: 100%
horse: 100%
horse: 82%
person: 100%
person: 100%
person: 100%
e1/20/25.jpg: Predicted in 0.225057 seconds.
horse: 100%
horse: 100%
horse: 82%
person: 100%
person: 100%
person: 100%
e1/20/25.jpg: Predicted in 0.220380 seconds.
horse: 100%
horse: 100%
horse: 82%
person: 100%
person: 100%
person: 100%
e1/20/25.jpg: Predicted in 0.223849 seconds.
horse: 100%
horse: 100%
horse: 82%
person: 100%
person: 100%
person: 100%
e1/20/26.jpg: Predicted in 0.223864 seconds.
horse: 100%
horse: 65%
e1/20/26.jpg: Predicted in 0.224953 seconds.
horse: 100%
horse: 65%
e1/20/26.jpg: Predicted in 0.224911 seconds.
horse: 100%
horse: 65%
e1/20/26.jpg: Predicted in 0.225495 seconds.
horse: 100%
horse: 65%
e1/20/26.jpg: Predicted in 0.224559 seconds.
horse: 100%
horse: 65%
e1/20/27.jpg: Predicted in 0.217886 seconds.
tvmonitor: 98%
diningtable: 98%
diningtable: 64%
chair: 99%
chair: 96%
e1/20/27.jpg: Predicted in 0.219272 seconds.
tvmonitor: 98%
diningtable: 98%
diningtable: 64%
chair: 99%
chair: 96%
e1/20/27.jpg: Predicted in 0.222731 seconds.
tvmonitor: 98%
diningtable: 98%
diningtable: 64%
chair: 99%
chair: 96%
e1/20/27.jpg: Predicted in 0.221706 seconds.
tvmonitor: 98%
diningtable: 98%
diningtable: 64%
chair: 99%
chair: 96%
e1/20/27.jpg: Predicted in 0.222098 seconds.
tvmonitor: 98%
diningtable: 98%
diningtable: 64%
chair: 99%
chair: 96%
e1/20/28.jpg: Predicted in 0.234087 seconds.
truck: 84%
car: 67%
bicycle: 99%
person: 84%
e1/20/28.jpg: Predicted in 0.234454 seconds.
truck: 84%
car: 67%
bicycle: 99%
person: 84%
e1/20/28.jpg: Predicted in 0.229574 seconds.
truck: 84%
car: 67%
bicycle: 99%
person: 84%
e1/20/28.jpg: Predicted in 0.228876 seconds.
truck: 84%
car: 67%
bicycle: 99%
person: 84%
e1/20/28.jpg: Predicted in 0.233515 seconds.
truck: 84%
car: 67%
bicycle: 99%
person: 84%
e1/20/29.jpg: Predicted in 0.233240 seconds.
cow: 55%
sheep: 65%
horse: 77%
e1/20/29.jpg: Predicted in 0.232789 seconds.
cow: 55%
sheep: 65%
horse: 77%
e1/20/29.jpg: Predicted in 0.234212 seconds.
cow: 55%
sheep: 65%
horse: 77%
e1/20/29.jpg: Predicted in 0.229444 seconds.
cow: 55%
sheep: 65%
horse: 77%
e1/20/29.jpg: Predicted in 0.231625 seconds.
cow: 55%
sheep: 65%
horse: 77%
e1/10/11.jpg: Predicted in 0.235157 seconds.
horse: 92%
person: 97%
person: 97%
e1/10/11.jpg: Predicted in 0.233253 seconds.
horse: 92%
person: 97%
person: 97%
e1/10/11.jpg: Predicted in 0.233059 seconds.
horse: 92%
person: 97%
person: 97%
e1/10/11.jpg: Predicted in 0.229844 seconds.
horse: 92%
person: 97%
person: 97%
e1/10/11.jpg: Predicted in 0.232247 seconds.
horse: 92%
person: 97%
person: 97%
e1/10/12.jpg: Predicted in 0.224505 seconds.
kite: 53%
bird: 99%
bird: 99%
e1/10/12.jpg: Predicted in 0.221149 seconds.
kite: 53%
bird: 99%
bird: 99%
e1/10/12.jpg: Predicted in 0.225292 seconds.
kite: 53%
bird: 99%
bird: 99%
e1/10/12.jpg: Predicted in 0.227571 seconds.
kite: 53%
bird: 99%
bird: 99%
e1/10/12.jpg: Predicted in 0.226525 seconds.
kite: 53%
bird: 99%
bird: 99%
e1/10/13.jpg: Predicted in 0.226416 seconds.
bird: 100%
bird: 99%
e1/10/13.jpg: Predicted in 0.224217 seconds.
bird: 100%
bird: 99%
e1/10/13.jpg: Predicted in 0.226949 seconds.
bird: 100%
bird: 99%
e1/10/13.jpg: Predicted in 0.221374 seconds.
bird: 100%
bird: 99%
e1/10/13.jpg: Predicted in 0.222405 seconds.
bird: 100%
bird: 99%
e1/10/14.jpg: Predicted in 0.219626 seconds.
aeroplane: 99%
e1/10/14.jpg: Predicted in 0.226409 seconds.
aeroplane: 99%
e1/10/14.jpg: Predicted in 0.217769 seconds.
aeroplane: 99%
e1/10/14.jpg: Predicted in 0.216700 seconds.
aeroplane: 99%
e1/10/14.jpg: Predicted in 0.217720 seconds.
aeroplane: 99%
e1/10/15.jpg: Predicted in 0.227897 seconds.
horse: 100%
horse: 99%
horse: 83%
person: 100%
person: 100%
person: 100%
e1/10/15.jpg: Predicted in 0.225308 seconds.
horse: 100%
horse: 99%
horse: 83%
person: 100%
person: 100%
person: 100%
e1/10/15.jpg: Predicted in 0.222125 seconds.
horse: 100%
horse: 99%
horse: 83%
person: 100%
person: 100%
person: 100%
e1/10/15.jpg: Predicted in 0.225979 seconds.
horse: 100%
horse: 99%
horse: 83%
person: 100%
person: 100%
person: 100%
e1/10/15.jpg: Predicted in 0.222532 seconds.
horse: 100%
horse: 99%
horse: 83%
person: 100%
person: 100%
person: 100%
e1/10/16.jpg: Predicted in 0.225364 seconds.
horse: 100%
horse: 69%
e1/10/16.jpg: Predicted in 0.226040 seconds.
horse: 100%
horse: 69%
e1/10/16.jpg: Predicted in 0.224994 seconds.
horse: 100%
horse: 69%
e1/10/16.jpg: Predicted in 0.229522 seconds.
horse: 100%
horse: 69%
e1/10/16.jpg: Predicted in 0.227056 seconds.
horse: 100%
horse: 69%
e1/10/17.jpg: Predicted in 0.223494 seconds.
tvmonitor: 95%
diningtable: 98%
chair: 98%
e1/10/17.jpg: Predicted in 0.218140 seconds.
tvmonitor: 95%
diningtable: 98%
chair: 98%
e1/10/17.jpg: Predicted in 0.218882 seconds.
tvmonitor: 95%
diningtable: 98%
chair: 98%
e1/10/17.jpg: Predicted in 0.218449 seconds.
tvmonitor: 95%
diningtable: 98%
chair: 98%
e1/10/17.jpg: Predicted in 0.216468 seconds.
tvmonitor: 95%
diningtable: 98%
chair: 98%
e1/10/18.jpg: Predicted in 0.232037 seconds.
truck: 81%
car: 60%
bicycle: 99%
person: 59%
e1/10/18.jpg: Predicted in 0.233238 seconds.
truck: 81%
car: 60%
bicycle: 99%
person: 59%
e1/10/18.jpg: Predicted in 0.234206 seconds.
truck: 81%
car: 60%
bicycle: 99%
person: 59%
e1/10/18.jpg: Predicted in 0.230330 seconds.
truck: 81%
car: 60%
bicycle: 99%
person: 59%
e1/10/18.jpg: Predicted in 0.233672 seconds.
truck: 81%
car: 60%
bicycle: 99%
person: 59%
e1/10/19.jpg: Predicted in 0.232707 seconds.
horse: 63%
sheep: 59%
dog: 83%
e1/10/19.jpg: Predicted in 0.229513 seconds.
horse: 63%
sheep: 59%
dog: 83%
e1/10/19.jpg: Predicted in 0.231454 seconds.
horse: 63%
sheep: 59%
dog: 83%
e1/10/19.jpg: Predicted in 0.233559 seconds.
horse: 63%
sheep: 59%
dog: 83%
e1/10/19.jpg: Predicted in 0.231431 seconds.
horse: 63%
sheep: 59%
dog: 83%
