## WARNING!
## The current directory is in your home directory. Please use the high-performance
## cluster filesystem /nobackup. See documentation for information.
## WARNING!

## Hosts assigned to job 3438516.1:
##
## db12gpu7.arc3.leeds.ac.uk 24 slots
##
## Resources granted:
##
## h_vmem = 11453246122 (per slot)
## h_rt   = 00:20:00
## disk   = 1G (per slot)

e1/og/1.jpg: Predicted in 0.205974 seconds.
horse: 92%
person: 99%
person: 99%
person: 53%
e1/og/2.jpg: Predicted in 0.204792 seconds.
kite: 92%
bird: 99%
bird: 99%
e1/og/3.jpg: Predicted in 0.211475 seconds.
bird: 100%
bird: 100%
e1/og/4.jpg: Predicted in 0.210635 seconds.
aeroplane: 100%
e1/og/5.jpg: Predicted in 0.206805 seconds.
horse: 100%
horse: 100%
horse: 71%
person: 100%
person: 100%
person: 100%
e1/og/6.jpg: Predicted in 0.208842 seconds.
horse: 100%
horse: 67%
e1/og/7.jpg: Predicted in 0.210260 seconds.
sink: 51%
tvmonitor: 99%
diningtable: 99%
diningtable: 62%
chair: 100%
chair: 100%
e1/og/8.jpg: Predicted in 0.213745 seconds.
truck: 83%
car: 64%
bicycle: 99%
person: 92%
e1/og/9.jpg: Predicted in 0.205788 seconds.
sheep: 73%
horse: 82%
sheep: 55%
e1/og/1.jpg: Predicted in 0.162527 seconds.
person: 67%
person: 62%
e1/og/2.jpg: Predicted in 0.161761 seconds.
kite: 82%
kite: 71%
kite: 70%
bird: 84%
e1/og/3.jpg: Predicted in 0.161393 seconds.
e1/og/4.jpg: Predicted in 0.166113 seconds.
e1/og/5.jpg: Predicted in 0.163831 seconds.
horse: 81%
horse: 77%
horse: 66%
person: 60%
e1/og/6.jpg: Predicted in 0.167192 seconds.
horse: 78%
horse: 78%
e1/og/7.jpg: Predicted in 0.164367 seconds.
refrigerator: 70%
chair: 90%
chair: 87%
chair: 78%
chair: 74%
e1/og/8.jpg: Predicted in 0.163851 seconds.
truck: 55%
e1/og/9.jpg: Predicted in 0.166325 seconds.
cow: 65%
cow: 65%
cow: 63%
sheep: 77%
